<?xml version="1.0" encoding="utf-8"?>
<!-- Generator: Adobe Illustrator 15.0.2, SVG Export Plug-In . SVG Version: 6.00 Build 0)  -->
<!DOCTYPE svg PUBLIC "-//W3C//DTD SVG 1.1//EN" "http://www.w3.org/Graphics/SVG/1.1/DTD/svg11.dtd">
<svg version="1.1" id="Layer_1" xmlns="http://www.w3.org/2000/svg" xmlns:xlink="http://www.w3.org/1999/xlink" x="0px" y="0px"
	 width="352px" height="99px" viewBox="0 0 352 99" enable-background="new 0 0 352 99" xml:space="preserve">
<g>
	<polygon fill="#AD680E" points="332.126,0.013 332.128,0.014 332.13,0.013 332.13,0.015 352.128,11.144 352.128,35.651 
		352.128,35.789 352.128,35.792 332.13,46.92 332.128,46.919 332.126,46.92 332.126,46.918 312.128,35.789 312.128,35.651 
		312.128,11.144 312.128,11.141 332.128,23.467 	"/>
	<polygon fill="#AD680E" points="280.126,0.013 280.128,0.014 280.13,0.013 280.13,0.015 300.128,11.144 300.128,35.651 
		300.128,35.789 300.128,35.792 280.13,46.92 280.128,46.919 280.126,46.92 280.126,46.918 260.128,35.789 260.128,35.651 
		280.128,23.467 260.128,11.144 260.128,11.141 	"/>
	<polygon fill="#AD680E" points="228.126,46.92 228.128,46.919 228.13,46.92 228.13,46.918 248.128,35.789 248.128,11.282 
		248.128,11.144 248.128,11.141 228.13,0.013 228.128,0.014 228.126,0.013 228.126,0.015 208.128,11.144 208.128,11.282 
		208.128,35.789 208.128,35.792 228.128,23.466 	"/>
	<polygon fill="#AD680E" points="176.13,0.013 176.128,0.014 176.126,0.013 176.126,0.015 156.128,11.144 156.128,35.651 
		156.128,35.789 156.128,35.792 176.126,46.92 176.128,46.919 176.13,46.92 176.13,46.918 176.128,23.467 196.128,35.789 
		196.128,35.651 196.128,11.144 196.128,11.141 	"/>
	<polygon fill="#AD680E" points="124.13,0.013 124.128,0.014 124.126,0.013 124.126,0.015 104.128,11.144 104.128,35.651 
		104.128,35.789 104.128,35.792 124.126,46.92 124.128,46.919 124.13,46.92 124.13,46.918 144.128,35.789 144.128,35.651 
		124.128,23.467 144.128,11.144 144.128,11.141 	"/>
	<polygon fill="#AD680E" points="72.13,0.013 72.128,0.014 72.126,0.013 72.126,0.015 52.128,11.144 52.128,35.651 52.128,35.789 
		52.128,35.792 72.126,46.92 72.128,46.919 72.13,46.92 72.13,46.918 92.128,35.789 92.128,35.651 92.128,11.144 92.128,11.141 
		72.128,23.467 	"/>
	<polygon fill="#AD680E" points="20.13,0.013 20.128,0.014 20.126,0.013 20.126,0.015 0.128,11.144 0.128,35.651 0.128,35.789 
		0.128,35.792 20.126,46.92 20.128,46.919 20.13,46.92 20.13,46.918 40.128,35.789 40.128,35.651 40.128,11.144 40.128,11.141 	"/>
</g>
<g>
	<polygon fill="#FFFFFF" points="332.126,50 332.128,50.001 332.13,50 332.13,50.002 352.128,61.132 352.128,85.639 352.128,85.776 
		352.128,85.779 332.13,96.907 332.128,96.907 332.126,96.907 332.126,96.905 312.128,85.776 312.128,85.639 312.128,61.132 
		312.128,61.128 332.128,73.454 	"/>
	<polygon fill="#FFFFFF" points="280.126,50 280.128,50.001 280.13,50 280.13,50.002 300.128,61.132 300.128,85.639 300.128,85.776 
		300.128,85.779 280.13,96.907 280.128,96.907 280.126,96.907 280.126,96.905 260.128,85.776 260.128,85.639 280.128,73.454 
		260.128,61.132 260.128,61.128 	"/>
	<polygon fill="#FFFFFF" points="228.126,96.907 228.128,96.907 228.13,96.907 228.13,96.905 248.128,85.776 248.128,61.269 
		248.128,61.132 248.128,61.128 228.13,50 228.128,50.001 228.126,50 228.126,50.003 208.128,61.132 208.128,61.269 208.128,85.776 
		208.128,85.779 228.128,73.454 	"/>
	<polygon fill="#FFFFFF" points="176.13,50 176.128,50.001 176.126,50 176.126,50.002 156.128,61.132 156.128,85.639 
		156.128,85.776 156.128,85.779 176.126,96.907 176.128,96.907 176.13,96.907 176.13,96.905 176.128,73.454 196.128,85.776 
		196.128,85.639 196.128,61.132 196.128,61.128 	"/>
	<polygon fill="#FFFFFF" points="124.13,50 124.128,50.001 124.126,50 124.126,50.002 104.128,61.132 104.128,85.639 
		104.128,85.776 104.128,85.779 124.126,96.907 124.128,96.907 124.13,96.907 124.13,96.905 144.128,85.776 144.128,85.639 
		124.128,73.454 144.128,61.132 144.128,61.128 	"/>
	<polygon fill="#FFFFFF" points="72.13,50 72.128,50.001 72.126,50 72.126,50.002 52.128,61.132 52.128,85.639 52.128,85.776 
		52.128,85.779 72.126,96.907 72.128,96.907 72.13,96.907 72.13,96.905 92.128,85.776 92.128,85.639 92.128,61.132 92.128,61.128 
		72.128,73.454 	"/>
	<polygon fill="#FFFFFF" points="20.13,50 20.128,50.001 20.126,50 20.126,50.002 0.128,61.132 0.128,85.639 0.128,85.776 
		0.128,85.779 20.126,96.907 20.128,96.907 20.13,96.907 20.13,96.905 40.128,85.776 40.128,85.639 40.128,61.132 40.128,61.128 	
		"/>
</g>
</svg>
